-- Merging decision tree log ---
manifest
ADDED from C:\Users\ale_b\Downloads\Desktop\cristina\Practica7\app\src\main\AndroidManifest.xml:2:1-22:12
INJECTED from C:\Users\ale_b\Downloads\Desktop\cristina\Practica7\app\src\main\AndroidManifest.xml:2:1-22:12
INJECTED from C:\Users\ale_b\Downloads\Desktop\cristina\Practica7\app\src\main\AndroidManifest.xml:2:1-22:12
INJECTED from C:\Users\ale_b\Downloads\Desktop\cristina\Practica7\app\src\main\AndroidManifest.xml:2:1-22:12
MERGED from [com.android.support:appcompat-v7:28.0.0] C:\Users\ale_b\.gradle\caches\transforms-1\files-1.1\appcompat-v7-28.0.0.aar\4bbed499f33bfb5adf84f93fa076cf97\AndroidManifest.xml:17:1-22:12
MERGED from [com.android.support.constraint:constraint-layout:1.1.3] C:\Users\ale_b\.gradle\caches\transforms-1\files-1.1\constraint-layout-1.1.3.aar\f757d09d0870ff3aa92b3267bd2b9952\AndroidManifest.xml:2:1-11:12
MERGED from [com.android.support:support-fragment:28.0.0] C:\Users\ale_b\.gradle\caches\transforms-1\files-1.1\support-fragment-28.0.0.aar\9ffaf8cd52278a7cc5282f68f3c7d7e6\AndroidManifest.xml:17:1-22:12
MERGED from [com.android.support:animated-vector-drawable:28.0.0] C:\Users\ale_b\.gradle\caches\transforms-1\files-1.1\animated-vector-drawable-28.0.0.aar\e54c8c1f71119e34789ae8cc861134f0\AndroidManifest.xml:17:1-22:12
MERGED from [com.android.support:support-core-ui:28.0.0] C:\Users\ale_b\.gradle\caches\transforms-1\files-1.1\support-core-ui-28.0.0.aar\8f0186f6e2f64f81cf0a42f3d9ed03ba\AndroidManifest.xml:17:1-22:12
MERGED from [com.android.support:support-core-utils:28.0.0] C:\Users\ale_b\.gradle\caches\transforms-1\files-1.1\support-core-utils-28.0.0.aar\1b2798bf9e8a7ba90950bb1255cad6f5\AndroidManifest.xml:17:1-22:12
MERGED from [com.android.support:support-vector-drawable:28.0.0] C:\Users\ale_b\.gradle\caches\transforms-1\files-1.1\support-vector-drawable-28.0.0.aar\5e51c2f2d3553a572758ceb64bea92aa\AndroidManifest.xml:17:1-22:12
MERGED from [com.android.support:loader:28.0.0] C:\Users\ale_b\.gradle\caches\transforms-1\files-1.1\loader-28.0.0.aar\97e64eeadbeff7710ee2105c43742c05\AndroidManifest.xml:17:1-22:12
MERGED from [com.android.support:viewpager:28.0.0] C:\Users\ale_b\.gradle\caches\transforms-1\files-1.1\viewpager-28.0.0.aar\24a1940b6e043639dda935f5287f71ee\AndroidManifest.xml:17:1-22:12
MERGED from [com.android.support:coordinatorlayout:28.0.0] C:\Users\ale_b\.gradle\caches\transforms-1\files-1.1\coordinatorlayout-28.0.0.aar\ee5c3ede5d81efaf97dac3998fec580d\AndroidManifest.xml:17:1-22:12
MERGED from [com.android.support:drawerlayout:28.0.0] C:\Users\ale_b\.gradle\caches\transforms-1\files-1.1\drawerlayout-28.0.0.aar\2017180871cd5c4db6722f0dd1784ba7\AndroidManifest.xml:17:1-22:12
MERGED from [com.android.support:slidingpanelayout:28.0.0] C:\Users\ale_b\.gradle\caches\transforms-1\files-1.1\slidingpanelayout-28.0.0.aar\2dc09fb3718569964bbfc07b63ee5374\AndroidManifest.xml:17:1-22:12
MERGED from [com.android.support:customview:28.0.0] C:\Users\ale_b\.gradle\caches\transforms-1\files-1.1\customview-28.0.0.aar\9b051d12570a35f002e31bde65338bc6\AndroidManifest.xml:17:1-22:12
MERGED from [com.android.support:swiperefreshlayout:28.0.0] C:\Users\ale_b\.gradle\caches\transforms-1\files-1.1\swiperefreshlayout-28.0.0.aar\39182c5be6628087cf51dbd6567a4500\AndroidManifest.xml:17:1-22:12
MERGED from [com.android.support:asynclayoutinflater:28.0.0] C:\Users\ale_b\.gradle\caches\transforms-1\files-1.1\asynclayoutinflater-28.0.0.aar\d8f23d35425a30af2ee620c38d982352\AndroidManifest.xml:17:1-22:12
MERGED from [com.android.support:support-compat:28.0.0] C:\Users\ale_b\.gradle\caches\transforms-1\files-1.1\support-compat-28.0.0.aar\3e33cd04bf679994dc7e67da1a0b195a\AndroidManifest.xml:17:1-24:12
MERGED from [com.android.support:versionedparcelable:28.0.0] C:\Users\ale_b\.gradle\caches\transforms-1\files-1.1\versionedparcelable-28.0.0.aar\8a933b354037c0f7bb5f7f508cb2bbdc\AndroidManifest.xml:17:1-25:12
MERGED from [com.android.support:cursoradapter:28.0.0] C:\Users\ale_b\.gradle\caches\transforms-1\files-1.1\cursoradapter-28.0.0.aar\25fd5dbb58be08c5705e8b85f3f10d7a\AndroidManifest.xml:17:1-22:12
MERGED from [android.arch.lifecycle:runtime:1.1.1] C:\Users\ale_b\.gradle\caches\transforms-1\files-1.1\runtime-1.1.1.aar\562d6c02982fab4a1f42cf31434a0700\AndroidManifest.xml:17:1-22:12
MERGED from [com.android.support:documentfile:28.0.0] C:\Users\ale_b\.gradle\caches\transforms-1\files-1.1\documentfile-28.0.0.aar\991b856f7e6edc4257978cc864914000\AndroidManifest.xml:17:1-22:12
MERGED from [com.android.support:localbroadcastmanager:28.0.0] C:\Users\ale_b\.gradle\caches\transforms-1\files-1.1\localbroadcastmanager-28.0.0.aar\42cac928beb4dca24db780b313b4e1a0\AndroidManifest.xml:17:1-22:12
MERGED from [com.android.support:print:28.0.0] C:\Users\ale_b\.gradle\caches\transforms-1\files-1.1\print-28.0.0.aar\8515e6207c9124dd3dbf62ba1b48fb2a\AndroidManifest.xml:17:1-22:12
MERGED from [android.arch.lifecycle:viewmodel:1.1.1] C:\Users\ale_b\.gradle\caches\transforms-1\files-1.1\viewmodel-1.1.1.aar\ad8b10f12c5943894140029e3486dc58\AndroidManifest.xml:17:1-22:12
MERGED from [android.arch.lifecycle:livedata:1.1.1] C:\Users\ale_b\.gradle\caches\transforms-1\files-1.1\livedata-1.1.1.aar\38e0fe54fc264c76428aaa8d6733210d\AndroidManifest.xml:17:1-22:12
MERGED from [android.arch.lifecycle:livedata-core:1.1.1] C:\Users\ale_b\.gradle\caches\transforms-1\files-1.1\livedata-core-1.1.1.aar\4977969ac858b55f0b6a87b814331fe4\AndroidManifest.xml:17:1-22:12
MERGED from [android.arch.core:runtime:1.1.1] C:\Users\ale_b\.gradle\caches\transforms-1\files-1.1\runtime-1.1.1.aar\43007338c3f945f5554126614987a145\AndroidManifest.xml:17:1-22:12
MERGED from [com.android.support:interpolator:28.0.0] C:\Users\ale_b\.gradle\caches\transforms-1\files-1.1\interpolator-28.0.0.aar\ea415c93f0197ef388a87a3a54666278\AndroidManifest.xml:17:1-22:12
INJECTED from C:\Users\ale_b\Downloads\Desktop\cristina\Practica7\app\src\main\AndroidManifest.xml:2:1-22:12
INJECTED from C:\Users\ale_b\Downloads\Desktop\cristina\Practica7\app\src\main\AndroidManifest.xml:2:1-22:12
INJECTED from C:\Users\ale_b\Downloads\Desktop\cristina\Practica7\app\src\main\AndroidManifest.xml:2:1-22:12
	package
		ADDED from C:\Users\ale_b\Downloads\Desktop\cristina\Practica7\app\src\main\AndroidManifest.xml:3:5-47
		INJECTED from C:\Users\ale_b\Downloads\Desktop\cristina\Practica7\app\src\main\AndroidManifest.xml
		INJECTED from C:\Users\ale_b\Downloads\Desktop\cristina\Practica7\app\src\main\AndroidManifest.xml
	android:versionName
		INJECTED from C:\Users\ale_b\Downloads\Desktop\cristina\Practica7\app\src\main\AndroidManifest.xml
		ADDED from C:\Users\ale_b\Downloads\Desktop\cristina\Practica7\app\src\main\AndroidManifest.xml:2:1-22:12
		INJECTED from C:\Users\ale_b\Downloads\Desktop\cristina\Practica7\app\src\main\AndroidManifest.xml
	android:versionCode
		INJECTED from C:\Users\ale_b\Downloads\Desktop\cristina\Practica7\app\src\main\AndroidManifest.xml
		ADDED from C:\Users\ale_b\Downloads\Desktop\cristina\Practica7\app\src\main\AndroidManifest.xml:2:1-22:12
		INJECTED from C:\Users\ale_b\Downloads\Desktop\cristina\Practica7\app\src\main\AndroidManifest.xml
	xmlns:android
		ADDED from C:\Users\ale_b\Downloads\Desktop\cristina\Practica7\app\src\main\AndroidManifest.xml:2:11-69
uses-permission#android.permission.VIBRATE
ADDED from C:\Users\ale_b\Downloads\Desktop\cristina\Practica7\app\src\main\AndroidManifest.xml:5:5-66
	android:name
		ADDED from C:\Users\ale_b\Downloads\Desktop\cristina\Practica7\app\src\main\AndroidManifest.xml:5:22-63
application
ADDED from C:\Users\ale_b\Downloads\Desktop\cristina\Practica7\app\src\main\AndroidManifest.xml:6:5-20:19
MERGED from [com.android.support.constraint:constraint-layout:1.1.3] C:\Users\ale_b\.gradle\caches\transforms-1\files-1.1\constraint-layout-1.1.3.aar\f757d09d0870ff3aa92b3267bd2b9952\AndroidManifest.xml:9:5-20
MERGED from [com.android.support.constraint:constraint-layout:1.1.3] C:\Users\ale_b\.gradle\caches\transforms-1\files-1.1\constraint-layout-1.1.3.aar\f757d09d0870ff3aa92b3267bd2b9952\AndroidManifest.xml:9:5-20
MERGED from [com.android.support:support-compat:28.0.0] C:\Users\ale_b\.gradle\caches\transforms-1\files-1.1\support-compat-28.0.0.aar\3e33cd04bf679994dc7e67da1a0b195a\AndroidManifest.xml:22:5-94
MERGED from [com.android.support:support-compat:28.0.0] C:\Users\ale_b\.gradle\caches\transforms-1\files-1.1\support-compat-28.0.0.aar\3e33cd04bf679994dc7e67da1a0b195a\AndroidManifest.xml:22:5-94
MERGED from [com.android.support:versionedparcelable:28.0.0] C:\Users\ale_b\.gradle\caches\transforms-1\files-1.1\versionedparcelable-28.0.0.aar\8a933b354037c0f7bb5f7f508cb2bbdc\AndroidManifest.xml:22:5-23:19
MERGED from [com.android.support:versionedparcelable:28.0.0] C:\Users\ale_b\.gradle\caches\transforms-1\files-1.1\versionedparcelable-28.0.0.aar\8a933b354037c0f7bb5f7f508cb2bbdc\AndroidManifest.xml:22:5-23:19
	android:appComponentFactory
		ADDED from [com.android.support:support-compat:28.0.0] C:\Users\ale_b\.gradle\caches\transforms-1\files-1.1\support-compat-28.0.0.aar\3e33cd04bf679994dc7e67da1a0b195a\AndroidManifest.xml:22:18-91
	android:supportsRtl
		ADDED from C:\Users\ale_b\Downloads\Desktop\cristina\Practica7\app\src\main\AndroidManifest.xml:11:9-35
	android:label
		ADDED from C:\Users\ale_b\Downloads\Desktop\cristina\Practica7\app\src\main\AndroidManifest.xml:9:9-41
	android:roundIcon
		ADDED from C:\Users\ale_b\Downloads\Desktop\cristina\Practica7\app\src\main\AndroidManifest.xml:10:9-54
	android:icon
		ADDED from C:\Users\ale_b\Downloads\Desktop\cristina\Practica7\app\src\main\AndroidManifest.xml:8:9-43
	android:allowBackup
		ADDED from C:\Users\ale_b\Downloads\Desktop\cristina\Practica7\app\src\main\AndroidManifest.xml:7:9-35
	android:theme
		ADDED from C:\Users\ale_b\Downloads\Desktop\cristina\Practica7\app\src\main\AndroidManifest.xml:12:9-40
activity#com.example.cristina_a.practica7.MainActivity
ADDED from C:\Users\ale_b\Downloads\Desktop\cristina\Practica7\app\src\main\AndroidManifest.xml:13:9-19:20
	android:name
		ADDED from C:\Users\ale_b\Downloads\Desktop\cristina\Practica7\app\src\main\AndroidManifest.xml:13:19-47
intent-filter#action:name:android.intent.action.MAIN+category:name:android.intent.category.LAUNCHER
ADDED from C:\Users\ale_b\Downloads\Desktop\cristina\Practica7\app\src\main\AndroidManifest.xml:14:13-18:29
action#android.intent.action.MAIN
ADDED from C:\Users\ale_b\Downloads\Desktop\cristina\Practica7\app\src\main\AndroidManifest.xml:15:17-69
	android:name
		ADDED from C:\Users\ale_b\Downloads\Desktop\cristina\Practica7\app\src\main\AndroidManifest.xml:15:25-66
category#android.intent.category.LAUNCHER
ADDED from C:\Users\ale_b\Downloads\Desktop\cristina\Practica7\app\src\main\AndroidManifest.xml:17:17-77
	android:name
		ADDED from C:\Users\ale_b\Downloads\Desktop\cristina\Practica7\app\src\main\AndroidManifest.xml:17:27-74
uses-sdk
INJECTED from C:\Users\ale_b\Downloads\Desktop\cristina\Practica7\app\src\main\AndroidManifest.xml reason: use-sdk injection requested
INJECTED from C:\Users\ale_b\Downloads\Desktop\cristina\Practica7\app\src\main\AndroidManifest.xml
INJECTED from C:\Users\ale_b\Downloads\Desktop\cristina\Practica7\app\src\main\AndroidManifest.xml
MERGED from [com.android.support:appcompat-v7:28.0.0] C:\Users\ale_b\.gradle\caches\transforms-1\files-1.1\appcompat-v7-28.0.0.aar\4bbed499f33bfb5adf84f93fa076cf97\AndroidManifest.xml:20:5-44
MERGED from [com.android.support:appcompat-v7:28.0.0] C:\Users\ale_b\.gradle\caches\transforms-1\files-1.1\appcompat-v7-28.0.0.aar\4bbed499f33bfb5adf84f93fa076cf97\AndroidManifest.xml:20:5-44
MERGED from [com.android.support.constraint:constraint-layout:1.1.3] C:\Users\ale_b\.gradle\caches\transforms-1\files-1.1\constraint-layout-1.1.3.aar\f757d09d0870ff3aa92b3267bd2b9952\AndroidManifest.xml:5:5-7:41
MERGED from [com.android.support.constraint:constraint-layout:1.1.3] C:\Users\ale_b\.gradle\caches\transforms-1\files-1.1\constraint-layout-1.1.3.aar\f757d09d0870ff3aa92b3267bd2b9952\AndroidManifest.xml:5:5-7:41
MERGED from [com.android.support:support-fragment:28.0.0] C:\Users\ale_b\.gradle\caches\transforms-1\files-1.1\support-fragment-28.0.0.aar\9ffaf8cd52278a7cc5282f68f3c7d7e6\AndroidManifest.xml:20:5-44
MERGED from [com.android.support:support-fragment:28.0.0] C:\Users\ale_b\.gradle\caches\transforms-1\files-1.1\support-fragment-28.0.0.aar\9ffaf8cd52278a7cc5282f68f3c7d7e6\AndroidManifest.xml:20:5-44
MERGED from [com.android.support:animated-vector-drawable:28.0.0] C:\Users\ale_b\.gradle\caches\transforms-1\files-1.1\animated-vector-drawable-28.0.0.aar\e54c8c1f71119e34789ae8cc861134f0\AndroidManifest.xml:20:5-44
MERGED from [com.android.support:animated-vector-drawable:28.0.0] C:\Users\ale_b\.gradle\caches\transforms-1\files-1.1\animated-vector-drawable-28.0.0.aar\e54c8c1f71119e34789ae8cc861134f0\AndroidManifest.xml:20:5-44
MERGED from [com.android.support:support-core-ui:28.0.0] C:\Users\ale_b\.gradle\caches\transforms-1\files-1.1\support-core-ui-28.0.0.aar\8f0186f6e2f64f81cf0a42f3d9ed03ba\AndroidManifest.xml:20:5-44
MERGED from [com.android.support:support-core-ui:28.0.0] C:\Users\ale_b\.gradle\caches\transforms-1\files-1.1\support-core-ui-28.0.0.aar\8f0186f6e2f64f81cf0a42f3d9ed03ba\AndroidManifest.xml:20:5-44
MERGED from [com.android.support:support-core-utils:28.0.0] C:\Users\ale_b\.gradle\caches\transforms-1\files-1.1\support-core-utils-28.0.0.aar\1b2798bf9e8a7ba90950bb1255cad6f5\AndroidManifest.xml:20:5-44
MERGED from [com.android.support:support-core-utils:28.0.0] C:\Users\ale_b\.gradle\caches\transforms-1\files-1.1\support-core-utils-28.0.0.aar\1b2798bf9e8a7ba90950bb1255cad6f5\AndroidManifest.xml:20:5-44
MERGED from [com.android.support:support-vector-drawable:28.0.0] C:\Users\ale_b\.gradle\caches\transforms-1\files-1.1\support-vector-drawable-28.0.0.aar\5e51c2f2d3553a572758ceb64bea92aa\AndroidManifest.xml:20:5-44
MERGED from [com.android.support:support-vector-drawable:28.0.0] C:\Users\ale_b\.gradle\caches\transforms-1\files-1.1\support-vector-drawable-28.0.0.aar\5e51c2f2d3553a572758ceb64bea92aa\AndroidManifest.xml:20:5-44
MERGED from [com.android.support:loader:28.0.0] C:\Users\ale_b\.gradle\caches\transforms-1\files-1.1\loader-28.0.0.aar\97e64eeadbeff7710ee2105c43742c05\AndroidManifest.xml:20:5-44
MERGED from [com.android.support:loader:28.0.0] C:\Users\ale_b\.gradle\caches\transforms-1\files-1.1\loader-28.0.0.aar\97e64eeadbeff7710ee2105c43742c05\AndroidManifest.xml:20:5-44
MERGED from [com.android.support:viewpager:28.0.0] C:\Users\ale_b\.gradle\caches\transforms-1\files-1.1\viewpager-28.0.0.aar\24a1940b6e043639dda935f5287f71ee\AndroidManifest.xml:20:5-44
MERGED from [com.android.support:viewpager:28.0.0] C:\Users\ale_b\.gradle\caches\transforms-1\files-1.1\viewpager-28.0.0.aar\24a1940b6e043639dda935f5287f71ee\AndroidManifest.xml:20:5-44
MERGED from [com.android.support:coordinatorlayout:28.0.0] C:\Users\ale_b\.gradle\caches\transforms-1\files-1.1\coordinatorlayout-28.0.0.aar\ee5c3ede5d81efaf97dac3998fec580d\AndroidManifest.xml:20:5-44
MERGED from [com.android.support:coordinatorlayout:28.0.0] C:\Users\ale_b\.gradle\caches\transforms-1\files-1.1\coordinatorlayout-28.0.0.aar\ee5c3ede5d81efaf97dac3998fec580d\AndroidManifest.xml:20:5-44
MERGED from [com.android.support:drawerlayout:28.0.0] C:\Users\ale_b\.gradle\caches\transforms-1\files-1.1\drawerlayout-28.0.0.aar\2017180871cd5c4db6722f0dd1784ba7\AndroidManifest.xml:20:5-44
MERGED from [com.android.support:drawerlayout:28.0.0] C:\Users\ale_b\.gradle\caches\transforms-1\files-1.1\drawerlayout-28.0.0.aar\2017180871cd5c4db6722f0dd1784ba7\AndroidManifest.xml:20:5-44
MERGED from [com.android.support:slidingpanelayout:28.0.0] C:\Users\ale_b\.gradle\caches\transforms-1\files-1.1\slidingpanelayout-28.0.0.aar\2dc09fb3718569964bbfc07b63ee5374\AndroidManifest.xml:20:5-44
MERGED from [com.android.support:slidingpanelayout:28.0.0] C:\Users\ale_b\.gradle\caches\transforms-1\files-1.1\slidingpanelayout-28.0.0.aar\2dc09fb3718569964bbfc07b63ee5374\AndroidManifest.xml:20:5-44
MERGED from [com.android.support:customview:28.0.0] C:\Users\ale_b\.gradle\caches\transforms-1\files-1.1\customview-28.0.0.aar\9b051d12570a35f002e31bde65338bc6\AndroidManifest.xml:20:5-44
MERGED from [com.android.support:customview:28.0.0] C:\Users\ale_b\.gradle\caches\transforms-1\files-1.1\customview-28.0.0.aar\9b051d12570a35f002e31bde65338bc6\AndroidManifest.xml:20:5-44
MERGED from [com.android.support:swiperefreshlayout:28.0.0] C:\Users\ale_b\.gradle\caches\transforms-1\files-1.1\swiperefreshlayout-28.0.0.aar\39182c5be6628087cf51dbd6567a4500\AndroidManifest.xml:20:5-44
MERGED from [com.android.support:swiperefreshlayout:28.0.0] C:\Users\ale_b\.gradle\caches\transforms-1\files-1.1\swiperefreshlayout-28.0.0.aar\39182c5be6628087cf51dbd6567a4500\AndroidManifest.xml:20:5-44
MERGED from [com.android.support:asynclayoutinflater:28.0.0] C:\Users\ale_b\.gradle\caches\transforms-1\files-1.1\asynclayoutinflater-28.0.0.aar\d8f23d35425a30af2ee620c38d982352\AndroidManifest.xml:20:5-44
MERGED from [com.android.support:asynclayoutinflater:28.0.0] C:\Users\ale_b\.gradle\caches\transforms-1\files-1.1\asynclayoutinflater-28.0.0.aar\d8f23d35425a30af2ee620c38d982352\AndroidManifest.xml:20:5-44
MERGED from [com.android.support:support-compat:28.0.0] C:\Users\ale_b\.gradle\caches\transforms-1\files-1.1\support-compat-28.0.0.aar\3e33cd04bf679994dc7e67da1a0b195a\AndroidManifest.xml:20:5-44
MERGED from [com.android.support:support-compat:28.0.0] C:\Users\ale_b\.gradle\caches\transforms-1\files-1.1\support-compat-28.0.0.aar\3e33cd04bf679994dc7e67da1a0b195a\AndroidManifest.xml:20:5-44
MERGED from [com.android.support:versionedparcelable:28.0.0] C:\Users\ale_b\.gradle\caches\transforms-1\files-1.1\versionedparcelable-28.0.0.aar\8a933b354037c0f7bb5f7f508cb2bbdc\AndroidManifest.xml:20:5-44
MERGED from [com.android.support:versionedparcelable:28.0.0] C:\Users\ale_b\.gradle\caches\transforms-1\files-1.1\versionedparcelable-28.0.0.aar\8a933b354037c0f7bb5f7f508cb2bbdc\AndroidManifest.xml:20:5-44
MERGED from [com.android.support:cursoradapter:28.0.0] C:\Users\ale_b\.gradle\caches\transforms-1\files-1.1\cursoradapter-28.0.0.aar\25fd5dbb58be08c5705e8b85f3f10d7a\AndroidManifest.xml:20:5-44
MERGED from [com.android.support:cursoradapter:28.0.0] C:\Users\ale_b\.gradle\caches\transforms-1\files-1.1\cursoradapter-28.0.0.aar\25fd5dbb58be08c5705e8b85f3f10d7a\AndroidManifest.xml:20:5-44
MERGED from [android.arch.lifecycle:runtime:1.1.1] C:\Users\ale_b\.gradle\caches\transforms-1\files-1.1\runtime-1.1.1.aar\562d6c02982fab4a1f42cf31434a0700\AndroidManifest.xml:20:5-44
MERGED from [android.arch.lifecycle:runtime:1.1.1] C:\Users\ale_b\.gradle\caches\transforms-1\files-1.1\runtime-1.1.1.aar\562d6c02982fab4a1f42cf31434a0700\AndroidManifest.xml:20:5-44
MERGED from [com.android.support:documentfile:28.0.0] C:\Users\ale_b\.gradle\caches\transforms-1\files-1.1\documentfile-28.0.0.aar\991b856f7e6edc4257978cc864914000\AndroidManifest.xml:20:5-44
MERGED from [com.android.support:documentfile:28.0.0] C:\Users\ale_b\.gradle\caches\transforms-1\files-1.1\documentfile-28.0.0.aar\991b856f7e6edc4257978cc864914000\AndroidManifest.xml:20:5-44
MERGED from [com.android.support:localbroadcastmanager:28.0.0] C:\Users\ale_b\.gradle\caches\transforms-1\files-1.1\localbroadcastmanager-28.0.0.aar\42cac928beb4dca24db780b313b4e1a0\AndroidManifest.xml:20:5-44
MERGED from [com.android.support:localbroadcastmanager:28.0.0] C:\Users\ale_b\.gradle\caches\transforms-1\files-1.1\localbroadcastmanager-28.0.0.aar\42cac928beb4dca24db780b313b4e1a0\AndroidManifest.xml:20:5-44
MERGED from [com.android.support:print:28.0.0] C:\Users\ale_b\.gradle\caches\transforms-1\files-1.1\print-28.0.0.aar\8515e6207c9124dd3dbf62ba1b48fb2a\AndroidManifest.xml:20:5-44
MERGED from [com.android.support:print:28.0.0] C:\Users\ale_b\.gradle\caches\transforms-1\files-1.1\print-28.0.0.aar\8515e6207c9124dd3dbf62ba1b48fb2a\AndroidManifest.xml:20:5-44
MERGED from [android.arch.lifecycle:viewmodel:1.1.1] C:\Users\ale_b\.gradle\caches\transforms-1\files-1.1\viewmodel-1.1.1.aar\ad8b10f12c5943894140029e3486dc58\AndroidManifest.xml:20:5-44
MERGED from [android.arch.lifecycle:viewmodel:1.1.1] C:\Users\ale_b\.gradle\caches\transforms-1\files-1.1\viewmodel-1.1.1.aar\ad8b10f12c5943894140029e3486dc58\AndroidManifest.xml:20:5-44
MERGED from [android.arch.lifecycle:livedata:1.1.1] C:\Users\ale_b\.gradle\caches\transforms-1\files-1.1\livedata-1.1.1.aar\38e0fe54fc264c76428aaa8d6733210d\AndroidManifest.xml:20:5-44
MERGED from [android.arch.lifecycle:livedata:1.1.1] C:\Users\ale_b\.gradle\caches\transforms-1\files-1.1\livedata-1.1.1.aar\38e0fe54fc264c76428aaa8d6733210d\AndroidManifest.xml:20:5-44
MERGED from [android.arch.lifecycle:livedata-core:1.1.1] C:\Users\ale_b\.gradle\caches\transforms-1\files-1.1\livedata-core-1.1.1.aar\4977969ac858b55f0b6a87b814331fe4\AndroidManifest.xml:20:5-44
MERGED from [android.arch.lifecycle:livedata-core:1.1.1] C:\Users\ale_b\.gradle\caches\transforms-1\files-1.1\livedata-core-1.1.1.aar\4977969ac858b55f0b6a87b814331fe4\AndroidManifest.xml:20:5-44
MERGED from [android.arch.core:runtime:1.1.1] C:\Users\ale_b\.gradle\caches\transforms-1\files-1.1\runtime-1.1.1.aar\43007338c3f945f5554126614987a145\AndroidManifest.xml:20:5-44
MERGED from [android.arch.core:runtime:1.1.1] C:\Users\ale_b\.gradle\caches\transforms-1\files-1.1\runtime-1.1.1.aar\43007338c3f945f5554126614987a145\AndroidManifest.xml:20:5-44
MERGED from [com.android.support:interpolator:28.0.0] C:\Users\ale_b\.gradle\caches\transforms-1\files-1.1\interpolator-28.0.0.aar\ea415c93f0197ef388a87a3a54666278\AndroidManifest.xml:20:5-44
MERGED from [com.android.support:interpolator:28.0.0] C:\Users\ale_b\.gradle\caches\transforms-1\files-1.1\interpolator-28.0.0.aar\ea415c93f0197ef388a87a3a54666278\AndroidManifest.xml:20:5-44
INJECTED from C:\Users\ale_b\Downloads\Desktop\cristina\Practica7\app\src\main\AndroidManifest.xml
INJECTED from C:\Users\ale_b\Downloads\Desktop\cristina\Practica7\app\src\main\AndroidManifest.xml
	android:targetSdkVersion
		INJECTED from C:\Users\ale_b\Downloads\Desktop\cristina\Practica7\app\src\main\AndroidManifest.xml
		ADDED from C:\Users\ale_b\Downloads\Desktop\cristina\Practica7\app\src\main\AndroidManifest.xml
		INJECTED from C:\Users\ale_b\Downloads\Desktop\cristina\Practica7\app\src\main\AndroidManifest.xml
	android:minSdkVersion
		INJECTED from C:\Users\ale_b\Downloads\Desktop\cristina\Practica7\app\src\main\AndroidManifest.xml
		ADDED from C:\Users\ale_b\Downloads\Desktop\cristina\Practica7\app\src\main\AndroidManifest.xml
		INJECTED from C:\Users\ale_b\Downloads\Desktop\cristina\Practica7\app\src\main\AndroidManifest.xml
